Picked up JAVA_TOOL_OPTIONS: -Dmarathon.launch.mode=executablejar -Dmarathon.agent=file:/home/ader/marathonite-java-4.0.1.0/marathon-java-agent-4.0.1.0.jar -javaagent:"/home/ader/marathonite-java-4.0.1.0/marathon-java-agent-4.0.1.0.jar"=35022 -Djava.util.logging.config.file="/home/ader/workspace/OCI/oci-tests-d-interfaces-utilisateur/TestMarathon/logging.properties"
Picked up JAVA_TOOL_OPTIONS: -Dmarathon.launch.mode=executablejar -Dmarathon.agent=file:/home/ader/marathonite-java-4.0.1.0/marathon-java-agent-4.0.1.0.jar -javaagent:"/home/ader/marathonite-java-4.0.1.0/marathon-java-agent-4.0.1.0.jar"=49323 -Dmarathon.recorder=file:/home/ader/marathonite-java-4.0.1.0/marathon-java-recorder-4.0.1.0.jar  -javaagent:"/home/ader/marathonite-java-4.0.1.0/marathon-java-recorder-4.0.1.0.jar"=40491 -Djava.util.logging.config.file="/home/ader/workspace/OCI/oci-tests-d-interfaces-utilisateur/TestMarathon/logging.properties"
1
Picked up JAVA_TOOL_OPTIONS: -Dmarathon.launch.mode=executablejar -Dmarathon.agent=file:/home/ader/marathonite-java-4.0.1.0/marathon-java-agent-4.0.1.0.jar -javaagent:"/home/ader/marathonite-java-4.0.1.0/marathon-java-agent-4.0.1.0.jar"=56827 -Djava.util.logging.config.file="/home/ader/workspace/OCI/oci-tests-d-interfaces-utilisateur/TestMarathon/logging.properties"
