Picked up JAVA_TOOL_OPTIONS: -Dmarathon.launch.mode=executablejar -Dmarathon.agent=file:/home/ader/marathonite-java-4.0.1.0/marathon-java-agent-4.0.1.0.jar -javaagent:"/home/ader/marathonite-java-4.0.1.0/marathon-java-agent-4.0.1.0.jar"=52140 -Dmarathon.recorder=file:/home/ader/marathonite-java-4.0.1.0/marathon-java-recorder-4.0.1.0.jar  -javaagent:"/home/ader/marathonite-java-4.0.1.0/marathon-java-recorder-4.0.1.0.jar"=44059 -Djava.util.logging.config.file="/home/ader/workspace/OCI/oci-tests-d-interfaces-utilisateur/TestMarathon/logging.properties"
1
Picked up JAVA_TOOL_OPTIONS: -Dmarathon.launch.mode=executablejar -Dmarathon.agent=file:/home/ader/marathonite-java-4.0.1.0/marathon-java-agent-4.0.1.0.jar -javaagent:"/home/ader/marathonite-java-4.0.1.0/marathon-java-agent-4.0.1.0.jar"=52178 -Djava.util.logging.config.file="/home/ader/workspace/OCI/oci-tests-d-interfaces-utilisateur/TestMarathon/logging.properties"
Picked up JAVA_TOOL_OPTIONS: -Dmarathon.launch.mode=executablejar -Dmarathon.agent=file:/home/ader/marathonite-java-4.0.1.0/marathon-java-agent-4.0.1.0.jar -javaagent:"/home/ader/marathonite-java-4.0.1.0/marathon-java-agent-4.0.1.0.jar"=57641 -Dmarathon.recorder=file:/home/ader/marathonite-java-4.0.1.0/marathon-java-recorder-4.0.1.0.jar  -javaagent:"/home/ader/marathonite-java-4.0.1.0/marathon-java-recorder-4.0.1.0.jar"=57757 -Djava.util.logging.config.file="/home/ader/workspace/OCI/oci-tests-d-interfaces-utilisateur/TestMarathon/logging.properties"
1
Picked up JAVA_TOOL_OPTIONS: -Dmarathon.launch.mode=executablejar -Dmarathon.agent=file:/home/ader/marathonite-java-4.0.1.0/marathon-java-agent-4.0.1.0.jar -javaagent:"/home/ader/marathonite-java-4.0.1.0/marathon-java-agent-4.0.1.0.jar"=60771 -Djava.util.logging.config.file="/home/ader/workspace/OCI/oci-tests-d-interfaces-utilisateur/TestMarathon/logging.properties"
1
Picked up JAVA_TOOL_OPTIONS: -Dmarathon.launch.mode=executablejar -Dmarathon.agent=file:/home/ader/marathonite-java-4.0.1.0/marathon-java-agent-4.0.1.0.jar -javaagent:"/home/ader/marathonite-java-4.0.1.0/marathon-java-agent-4.0.1.0.jar"=38778 -Djava.util.logging.config.file="/home/ader/workspace/OCI/oci-tests-d-interfaces-utilisateur/TestMarathon/logging.properties"
1
Picked up JAVA_TOOL_OPTIONS: -Dmarathon.launch.mode=executablejar -Dmarathon.agent=file:/home/ader/marathonite-java-4.0.1.0/marathon-java-agent-4.0.1.0.jar -javaagent:"/home/ader/marathonite-java-4.0.1.0/marathon-java-agent-4.0.1.0.jar"=42273 -Djava.util.logging.config.file="/home/ader/workspace/OCI/oci-tests-d-interfaces-utilisateur/TestMarathon/logging.properties"
1
Picked up JAVA_TOOL_OPTIONS: -Dmarathon.launch.mode=executablejar -Dmarathon.agent=file:/home/ader/marathonite-java-4.0.1.0/marathon-java-agent-4.0.1.0.jar -javaagent:"/home/ader/marathonite-java-4.0.1.0/marathon-java-agent-4.0.1.0.jar"=40065 -Djava.util.logging.config.file="/home/ader/workspace/OCI/oci-tests-d-interfaces-utilisateur/TestMarathon/logging.properties"
Picked up JAVA_TOOL_OPTIONS: -Dmarathon.launch.mode=executablejar -Dmarathon.agent=file:/home/ader/marathonite-java-4.0.1.0/marathon-java-agent-4.0.1.0.jar -javaagent:"/home/ader/marathonite-java-4.0.1.0/marathon-java-agent-4.0.1.0.jar"=44837 -Dmarathon.recorder=file:/home/ader/marathonite-java-4.0.1.0/marathon-java-recorder-4.0.1.0.jar  -javaagent:"/home/ader/marathonite-java-4.0.1.0/marathon-java-recorder-4.0.1.0.jar"=40931 -Djava.util.logging.config.file="/home/ader/workspace/OCI/oci-tests-d-interfaces-utilisateur/TestMarathon/logging.properties"
Picked up JAVA_TOOL_OPTIONS: -Dmarathon.launch.mode=executablejar -Dmarathon.agent=file:/home/ader/marathonite-java-4.0.1.0/marathon-java-agent-4.0.1.0.jar -javaagent:"/home/ader/marathonite-java-4.0.1.0/marathon-java-agent-4.0.1.0.jar"=56453 -Djava.util.logging.config.file="/home/ader/workspace/OCI/oci-tests-d-interfaces-utilisateur/TestMarathon/logging.properties"
Picked up JAVA_TOOL_OPTIONS: -Dmarathon.launch.mode=executablejar -Dmarathon.agent=file:/home/ader/marathonite-java-4.0.1.0/marathon-java-agent-4.0.1.0.jar -javaagent:"/home/ader/marathonite-java-4.0.1.0/marathon-java-agent-4.0.1.0.jar"=37330 -Djava.util.logging.config.file="/home/ader/workspace/OCI/oci-tests-d-interfaces-utilisateur/TestMarathon/logging.properties"
Picked up JAVA_TOOL_OPTIONS: -Dmarathon.launch.mode=executablejar -Dmarathon.agent=file:/home/ader/marathonite-java-4.0.1.0/marathon-java-agent-4.0.1.0.jar -javaagent:"/home/ader/marathonite-java-4.0.1.0/marathon-java-agent-4.0.1.0.jar"=52000 -Djava.util.logging.config.file="/home/ader/workspace/OCI/oci-tests-d-interfaces-utilisateur/TestMarathon/logging.properties"
Picked up JAVA_TOOL_OPTIONS: -Dmarathon.launch.mode=executablejar -Dmarathon.agent=file:/home/ader/marathonite-java-4.0.1.0/marathon-java-agent-4.0.1.0.jar -javaagent:"/home/ader/marathonite-java-4.0.1.0/marathon-java-agent-4.0.1.0.jar"=50924 -Djava.util.logging.config.file="/home/ader/workspace/OCI/oci-tests-d-interfaces-utilisateur/TestMarathon/logging.properties"
Picked up JAVA_TOOL_OPTIONS: -Dmarathon.launch.mode=executablejar -Dmarathon.agent=file:/home/ader/marathonite-java-4.0.1.0/marathon-java-agent-4.0.1.0.jar -javaagent:"/home/ader/marathonite-java-4.0.1.0/marathon-java-agent-4.0.1.0.jar"=37665 -Djava.util.logging.config.file="/home/ader/workspace/OCI/oci-tests-d-interfaces-utilisateur/TestMarathon/logging.properties"
Picked up JAVA_TOOL_OPTIONS: -Dmarathon.launch.mode=executablejar -Dmarathon.agent=file:/home/ader/marathonite-java-4.0.1.0/marathon-java-agent-4.0.1.0.jar -javaagent:"/home/ader/marathonite-java-4.0.1.0/marathon-java-agent-4.0.1.0.jar"=34187 -Djava.util.logging.config.file="/home/ader/workspace/OCI/oci-tests-d-interfaces-utilisateur/TestMarathon/logging.properties"
Picked up JAVA_TOOL_OPTIONS: -Dmarathon.launch.mode=executablejar -Dmarathon.agent=file:/home/ader/marathonite-java-4.0.1.0/marathon-java-agent-4.0.1.0.jar -javaagent:"/home/ader/marathonite-java-4.0.1.0/marathon-java-agent-4.0.1.0.jar"=53371 -Djava.util.logging.config.file="/home/ader/workspace/OCI/oci-tests-d-interfaces-utilisateur/TestMarathon/logging.properties"
Picked up JAVA_TOOL_OPTIONS: -Dmarathon.launch.mode=executablejar -Dmarathon.agent=file:/home/ader/marathonite-java-4.0.1.0/marathon-java-agent-4.0.1.0.jar -javaagent:"/home/ader/marathonite-java-4.0.1.0/marathon-java-agent-4.0.1.0.jar"=49984 -Djava.util.logging.config.file="/home/ader/workspace/OCI/oci-tests-d-interfaces-utilisateur/TestMarathon/logging.properties"
1
Picked up JAVA_TOOL_OPTIONS: -Dmarathon.launch.mode=executablejar -Dmarathon.agent=file:/home/ader/marathonite-java-4.0.1.0/marathon-java-agent-4.0.1.0.jar -javaagent:"/home/ader/marathonite-java-4.0.1.0/marathon-java-agent-4.0.1.0.jar"=48192 -Djava.util.logging.config.file="/home/ader/workspace/OCI/oci-tests-d-interfaces-utilisateur/TestMarathon/logging.properties"
